{
    "Items": [
        {
            "time": 0.01666666939854622,
            "x": 0.0,
            "y": 0.0,
            "z": 0.0
        },
        {
            "time": 0.01666666939854622,
            "x": 0.00010210118489339948,
            "y": 0.03559237718582153,
            "z": 0.010342175140976906
        },
        {
            "time": 0.01666666939854622,
            "x": 0.0006590771372430027,
            "y": 0.037905097007751468,
            "z": 0.00878730695694685
        },
        {
            "time": 0.01666666939854622,
            "x": 0.0005457934457808733,
            "y": 0.040637969970703128,
            "z": 0.008743837475776673
        },
        {
            "time": 0.01666666939854622,
            "x": 0.00044844020158052444,
            "y": 0.043074965476989749,
            "z": 0.008706469088792801
        },
        {
            "time": 0.01666666939854622,
            "x": 0.0003925061319023371,
            "y": 0.045115113258361819,
            "z": 0.008685003966093064
        },
        {
            "time": 0.01666666939854622,
            "x": 0.0003756219521164894,
            "y": 0.04684847593307495,
            "z": 0.008562907576560974
        },
        {
            "time": 0.01666666939854622,
            "x": 0.00039225141517817974,
            "y": 0.048100173473358157,
            "z": 0.008620671927928925
        },
        {
            "time": 0.01666666939854622,
            "x": 0.0004715204704552889,
            "y": 0.048451006412506106,
            "z": 0.009260930120944977
        },
        {
            "time": 0.01666666939854622,
            "x": 0.000596233643591404,
            "y": 0.04824429750442505,
            "z": 0.01003236323595047
        },
        {
            "time": 0.01666666939854622,
            "x": 0.0007234159857034683,
            "y": 0.04791480302810669,
            "z": 0.01119145005941391
        },
        {
            "time": 0.01666666939854622,
            "x": 0.0008615371771156788,
            "y": 0.04718834161758423,
            "z": 0.012839429080486298
        },
        {
            "time": 0.01666666939854622,
            "x": 0.0010406142100691796,
            "y": 0.04619783163070679,
            "z": 0.014551237225532532
        },
        {
            "time": 0.01666666939854622,
            "x": 0.0012526283971965314,
            "y": 0.04559832811355591,
            "z": 0.016059376299381257
        },
        {
            "time": 0.01666666939854622,
            "x": 0.001498485915362835,
            "y": 0.04562962055206299,
            "z": 0.017221301794052125
        },
        {
            "time": 0.01666666939854622,
            "x": 0.0017790812999010087,
            "y": 0.046530723571777347,
            "z": 0.017894253134727479
        },
        {
            "time": 0.01666666939854622,
            "x": 0.0011882400140166283,
            "y": 0.0028775930404663088,
            "z": 0.006506964564323425
        },
        {
            "time": 0.01666666939854622,
            "x": 0.00137342419475317,
            "y": 0.0038400888442993166,
            "z": 0.006109833717346191
        },
        {
            "time": 0.01666666939854622,
            "x": 0.0016912519931793213,
            "y": 0.005161166191101074,
            "z": 0.00565791130065918
        },
        {
            "time": 0.01666666939854622,
            "x": 0.00199723057448864,
            "y": 0.006554961204528809,
            "z": 0.005147919058799744
        },
        {
            "time": 0.01666666939854622,
            "x": 0.002245597541332245,
            "y": 0.007129311561584473,
            "z": 0.005060315132141113
        },
        {
            "time": 0.01666666939854622,
            "x": 0.002508755773305893,
            "y": 0.007332444190979004,
            "z": 0.005213558673858643
        },
        {
            "time": 0.01666666939854622,
            "x": 0.0027241837233304979,
            "y": 0.007751822471618652,
            "z": 0.005179122090339661
        },
        {
            "time": 0.01666666939854622,
            "x": 0.002794109284877777,
            "y": 0.008147120475769043,
            "z": 0.004983305931091309
        },
        {
            "time": 0.01666666939854622,
            "x": 0.002718517556786537,
            "y": 0.008518576622009278,
            "z": 0.004626035690307617
        },
        {
            "time": 0.01666666939854622,
            "x": 0.002497415989637375,
            "y": 0.008866071701049805,
            "z": 0.004107385873794556
        },
        {
            "time": 0.01666666939854622,
            "x": 0.0021875612437725069,
            "y": 0.009593844413757325,
            "z": 0.003385484218597412
        },
        {
            "time": 0.01666666939854622,
            "x": 0.001901581883430481,
            "y": 0.010576486587524414,
            "z": 0.0026334524154663088
        },
        {
            "time": 0.01666666939854622,
            "x": 0.0016390644013881684,
            "y": 0.011346578598022461,
            "z": 0.001979827880859375
        },
        {
            "time": 0.01666666939854622,
            "x": 0.001400001347064972,
            "y": 0.011904716491699219,
            "z": 0.001424640417098999
        },
        {
            "time": 0.01666666939854622,
            "x": 0.0011843964457511902,
            "y": 0.012250781059265137,
            "z": 0.0009678304195404053
        },
        {
            "time": 0.01666666939854622,
            "x": 0.000992264598608017,
            "y": 0.012384533882141114,
            "z": 0.000609472393989563
        },
        {
            "time": 0.01666666939854622,
            "x": 0.0008235722780227661,
            "y": 0.012305974960327149,
            "z": 0.00034949183464050293
        },
        {
            "time": 0.01666666939854622,
            "x": 0.0006862245500087738,
            "y": 0.01178896427154541,
            "z": 0.0002012699842453003
        },
        {
            "time": 0.01666666939854622,
            "x": -0.00112215057015419,
            "y": -0.022549748420715333,
            "z": -0.009498640894889832
        }
    ]
}