%YAML 1.1
%TAG !u! tag:unity3d.com,2011:
--- !u!114 &-656453623890557017
MonoBehaviour:
  m_ObjectHideFlags: 11
  m_CorrespondingSourceObject: {fileID: 0}
  m_PrefabInstance: {fileID: 0}
  m_PrefabAsset: {fileID: 0}
  m_GameObject: {fileID: 0}
  m_Enabled: 1
  m_EditorHideFlags: 0
  m_Script: {fileID: 11500000, guid: da692e001514ec24dbc4cca1949ff7e8, type: 3}
  m_Name: 
  m_EditorClassIdentifier: 
  version: 11
--- !u!21 &2100000
Material:
  serializedVersion: 6
  m_ObjectHideFlags: 0
  m_CorrespondingSourceObject: {fileID: 0}
  m_PrefabInstance: {fileID: 0}
  m_PrefabAsset: {fileID: 0}
  m_Name: Large Blood Puddle_2
  m_Shader: {fileID: 4800000, guid: 1d64af84bdc970c4fae0c1e06dd95b73, type: 3}
  m_ShaderKeywords: _ALBEDOCONTRIBUTION _COLORMAP _HEIGHTMAP _MASKMAP _MATERIAL_AFFECTS_ALBEDO
    _MATERIAL_AFFECTS_MASKMAP _MATERIAL_AFFECTS_NORMAL _NORMALMAP _NORMALMAP_TANGENT_SPACE
    _TESSELLATION_PHONG
  m_LightmapFlags: 4
  m_EnableInstancingVariants: 1
  m_DoubleSidedGI: 0
  m_CustomRenderQueue: -1
  stringTagMap: {}
  disabledShaderPasses:
  - DecalProjectorForwardEmissive
  - DecalMeshForwardEmissive
  m_SavedProperties:
    serializedVersion: 3
    m_TexEnvs:
    - _BaseColorMap:
        m_Texture: {fileID: 3624221800491889412, guid: 56e3e7a89786b0f4e8be94ebf9c656b1,
          type: 3}
        m_Scale: {x: 1, y: 1}
        m_Offset: {x: 0, y: 0}
    - _EmissiveColorMap:
        m_Texture: {fileID: 0}
        m_Scale: {x: 1, y: 1}
        m_Offset: {x: 0, y: 0}
    - _MaskMap:
        m_Texture: {fileID: 4120449919987293243, guid: 56e3e7a89786b0f4e8be94ebf9c656b1,
          type: 3}
        m_Scale: {x: 1, y: 1}
        m_Offset: {x: 0, y: 0}
    - _NormalMap:
        m_Texture: {fileID: -8020752189841213440, guid: 56e3e7a89786b0f4e8be94ebf9c656b1,
          type: 3}
        m_Scale: {x: 1, y: 1}
        m_Offset: {x: 0, y: 0}
    m_Floats:
    - _AO: 1
    - _AORemapMax: 1
    - _AORemapMin: 0
    - _AffectAO: 0
    - _AffectAlbedo: 1
    - _AffectEmission: 0
    - _AffectMetal: 1
    - _AffectNormal: 1
    - _AffectSmoothness: 1
    - _DecalBlend: 1
    - _DecalColorMask0: 15
    - _DecalColorMask1: 15
    - _DecalColorMask2: 11
    - _DecalColorMask3: 8
    - _DecalMaskMapBlueScale: 1
    - _DecalMeshDepthBias: 0
    - _DecalStencilRef: 16
    - _DecalStencilWriteMask: 16
    - _DrawOrder: 0
    - _EmissiveExposureWeight: 1
    - _EmissiveIntensity: 1
    - _EmissiveIntensityUnit: 0
    - _MaskBlendSrc: 1
    - _Metallic: 0
    - _MetallicRemapMax: 1
    - _MetallicRemapMin: 0
    - _NormalBlendSrc: 0
    - _Smoothness: 0.5
    - _SmoothnessRemapMax: 1
    - _SmoothnessRemapMin: 0
    - _Unity_Identify_HDRP_Decal: 1
    - _UseEmissiveIntensity: 0
    m_Colors:
    - _BaseColor: {r: 1, g: 1, b: 1, a: 1}
    - _EmissiveColor: {r: 0, g: 0, b: 0, a: 1}
    - _EmissiveColorHDR: {r: 0, g: 0, b: 0, a: 1}
    - _EmissiveColorLDR: {r: 0, g: 0, b: 0, a: 1}
  m_BuildTextureStacks: []
